epoch,iteration,valid/loss,valid/acc,valid/acc_cls,valid/mean_iu,valid/fwavacc
0,4000,94888.81624205215,0.8354079476994333,0.5266114087058641,0.40489244843312333,0.7240691813043452
0,8000,102464.76196819803,0.8227280521762167,0.46090818075741197,0.3437449769589921,0.7144195055377152
1,12000,94664.8636803005,0.8338509888588875,0.5000061224180697,0.37594017852989287,0.723036709595645
1,16000,102092.96796450407,0.8199125471926717,0.45725354102966936,0.33468926186567666,0.7106093633718871
2,20000,101798.90339063562,0.8254495965209478,0.3840609564304535,0.30668390969767856,0.7065867729913295
2,24000,113576.48808388087,0.8111347906971601,0.37471816765042565,0.29225870438859697,0.682755811209972
3,28000,105253.37494858452,0.8160441116992583,0.38314161983951917,0.30931347721366087,0.6906464539262086
3,32000,110845.22664376964,0.8103295651150316,0.37004929278708487,0.2865840526035256,0.6822710740223387
4,36000,111136.47830863621,0.8136309145700387,0.4094214213949041,0.31202377027095723,0.6875035813000366
4,40000,122272.811955991,0.8014793139221893,0.37762106527592,0.2647084635820792,0.6776621796845003
5,44000,140497.2649284031,0.7629476359983951,0.29999577002977074,0.20456542891753,0.6346183230987835
5,48000,130961.87890525487,0.7957606105687334,0.28182521901336266,0.22595483234512423,0.657141972308055
6,52000,151213.4760775359,0.7720719530975839,0.2399011357798467,0.17190732963108296,0.6298422303759067
6,56000,118414.2385426397,0.8035973643868283,0.3240503741607978,0.25188506386236353,0.6803372930276887
7,60000,147075.5307166058,0.7683219935518558,0.23141681697406438,0.1701122219099099,0.630221198678426
7,64000,160531.54411647632,0.744673740198601,0.2332791355988125,0.15635434532776055,0.606712874544833
8,68000,145116.0377648395,0.7742032041131537,0.21420721712029164,0.15686301958993012,0.6293768275514149
8,72000,157806.75923488452,0.7614637496300536,0.18981909702414929,0.1466460227328236,0.6042694513396891
8,76000,237293.20813519022,0.7286956729821821,0.047619047619047616,0.03469979395153248,0.5309973838229552
9,80000,235223.70525326935,0.7286956729821821,0.047619047619047616,0.03469979395153248,0.5309973838229552
9,84000,233441.87460725204,0.7286956729821821,0.047619047619047616,0.03469979395153248,0.5309973838229552
10,88000,233971.67475692087,0.7286956729821821,0.047619047619047616,0.03469979395153248,0.5309973838229552
10,92000,234232.57478133493,0.7286956729821821,0.047619047619047616,0.03469979395153248,0.5309973838229552
11,96000,236231.97015115488,0.7286956729821821,0.047619047619047616,0.03469979395153248,0.5309973838229552
11,100000,233977.18225628397,0.7286956729821821,0.047619047619047616,0.03469979395153248,0.5309973838229552
