epoch,iteration,valid/loss,valid/acc,valid/acc_cls,valid/mean_iu,valid/fwavacc
0,4000,89353.97131812054,0.8309585114227417,0.6203849795691303,0.44745893178545026,0.729018471793694
0,8000,79098.02580194888,0.8501453717692825,0.6883837099912673,0.49630471763088657,0.7568539593577125
1,12000,73034.24939678026,0.8567756433802074,0.7066682446991288,0.5094151023890456,0.7671703223405358
1,16000,68332.16480951724,0.8683798183846536,0.6861491481689005,0.5297127721184806,0.7817754157820401
2,20000,63843.35647168367,0.8759741234214278,0.6726558554341511,0.537327053866415,0.7863943150248731
2,24000,62680.123235785446,0.8775619851930584,0.6922669197890186,0.5453138964369855,0.7924228435168041
3,28000,61318.068790269936,0.8805850237013284,0.725223349434296,0.5625285960301722,0.7992408056445115
3,32000,62751.23382211768,0.8774178544360564,0.7310862153584917,0.5571916493295428,0.7947839029894425
4,36000,59425.36460942808,0.886846971855005,0.6990654224073293,0.571413022279876,0.8042645655504217
4,40000,59919.722769612854,0.8837355658896833,0.7177998970200744,0.566249583832793,0.8024273609423749
5,44000,57771.973396467125,0.8877101996147189,0.728655912819524,0.580098131628455,0.8087086577956343
5,48000,58557.42496175352,0.8861263902918542,0.7293099500548245,0.5754409833170807,0.8063481778186602
6,52000,59590.30672463127,0.8857061312931931,0.7310801540145002,0.5765037148744173,0.8051664576988364
6,56000,57398.69241507157,0.8884464613459662,0.732009288160314,0.5835969319507033,0.8105038055092897
7,60000,59947.07634818036,0.8878587038065278,0.7244817701566594,0.5799957687715338,0.8071219942941006
7,64000,57844.898329361626,0.8897880706516917,0.7247218339720235,0.5847631241083541,0.8106261389599086
8,68000,57077.24361975297,0.8885140850801266,0.7474983390957102,0.5901054400165942,0.8121617328909452
8,72000,58491.27011904509,0.8869293368730925,0.7499694863711451,0.5858968354851781,0.8103807803093839
8,76000,58681.597584185394,0.8912493194795009,0.7184945963314148,0.586605656717637,0.8120118874933073
9,80000,58121.40437565679,0.8883325434000612,0.7506916914298244,0.5898314572098176,0.8115678129650076
9,84000,56928.134396511574,0.8907559719593335,0.7411630279184296,0.5941167835334679,0.8145211049589122
10,88000,58970.738925519196,0.888902365844466,0.7407035120229972,0.5862552713333129,0.8113348261761224
10,92000,58953.762667448624,0.8886581355906185,0.7460854334045369,0.5876092556338142,0.811459624613784
11,96000,57969.300797669785,0.8907997223567042,0.7407080270689509,0.5929569368978811,0.8139456261091451
11,100000,58117.97228041939,0.8901245522936856,0.7435712451589808,0.5918694891923373,0.8133034399376161
