epoch,iteration,train/loss,train/acc,train/acc_cls,train/mean_iu,train/fwavacc,lr_unbais,lr_bais
0,255,551687.4011029411,0.6735999938449885,0.4278431372549016,0.2903040351414515,0.5043834236677948,1e-15,2e-15
0,511,553957.5569458008,0.6934198119445111,0.4291666666666664,0.29927335238606606,0.5222415777285176,5.000000000000001e-15,1.0000000000000002e-14
0,767,541729.0653686523,0.695625777065733,0.4371744791666663,0.30525729769940707,0.5372482611949595,1.0000000000000002e-14,2.0000000000000003e-14
0,1023,547960.2421875,0.7089662951534069,0.4310546874999995,0.3090461718273334,0.5448676279341813,5.000000000000001e-14,1.0000000000000002e-13
0,1279,543979.2121582031,0.6936737638552787,0.43255208333333295,0.30433311050355566,0.5281450703989544,1.0000000000000002e-13,2.0000000000000003e-13
0,1535,523506.38928222656,0.6961729791447411,0.43919270833333307,0.3094540941116727,0.5305450669884968,5.000000000000001e-13,1.0000000000000002e-12
0,1791,482804.8457336426,0.7118164497476503,0.4394531249999997,0.3155022828938735,0.5543135924088167,1.0000000000000002e-12,2.0000000000000004e-12
0,2047,359144.9245605469,0.6948852627582585,0.4399088541666663,0.3069379912564816,0.5214024070258256,5.0000000000000005e-12,1.0000000000000001e-11
0,2303,248763.44318389893,0.71781843346283,0.43528645833333307,0.31318929990110905,0.5519106332691989,1.0000000000000001e-11,2.0000000000000002e-11
0,2559,214311.21936798096,0.7028844305976063,0.49369292320129515,0.3410224233022431,0.5592024432576062,5.000000000000001e-11,1.0000000000000002e-10
0,2815,157846.76055145264,0.7592029874539012,0.5248690167965379,0.38651880292840013,0.636145347437026,1.0000000000000002e-10,2.0000000000000003e-10
0,3071,182479.93705940247,0.7285058217201797,0.5097931479618865,0.3446081801002741,0.6046582960298879,5.000000000000001e-10,1.0000000000000003e-09
0,3327,195733.2264251709,0.7366547641592704,0.4946536576579048,0.33765873651853207,0.6027511162741797,1.0000000000000003e-09,2.0000000000000005e-09
